
        <svg version="1.1" id="svg-editor-canvas" x="0px" y="0px" class="canvas" width="426" height="217" xmlns="http://www.w3.org/2000/svg" xmlns:xlink="http://www.w3.org/1999/xlink" xmlns:a="http://ns.adobe.com/AdobeSVGViewerExtensions/3.0/" xml:space="preserve">
				<g id="svg-engine">
				
				 <g ng-repeat="shape in logo.shapes | orderBy:'zindex'" class="ng-scope"> 
					
					<g ng-dblclick="test($event)" on-change="changeText(shape)" ng-model="shape" ng-click="clickOnItem($event,shape)" ng-right-click="rightClick($event)" ng-class="{'active': shape.selected}" class="contenteditable logo-item ng-scope ng-pristine ng-valid" ng-attr-transform="translate({{shape.x}} {{shape.y + (shape.bbox.y * -1 * shape.ratio)}})  scale({{shape.ratio}} {{shape.ratio}})" ng-if="shape.type == 'text'" id="shape-0" ng-mousedown="mouseDownItem($event,shape)" ng-mouseover="mouseUpItem($event,shape)" ng-mouseout="mouseOutItem($event,shape)" transform="translate(0 166.2364749448866)  scale(1 1)" contenteditable="false">
						<text class="real-text ng-binding" id="text-0" dominant-baseline="auto" alignment-baseline="auto" font-family="Androgyne" font-size="62px" fill="#ffffff" ng-attr-dx="{{shape.dx}}" xml:space="preserve" dx="0 0 0 0 0 0 0 0 0 0 0 0 0 0 0">NS IT Solutions</text>
					</g>
					
					
	
					
					
				 </g><g ng-repeat="shape in logo.shapes | orderBy:'zindex'" class="ng-scope"> 
					
					<g ng-dblclick="test($event)" on-change="changeText(shape)" ng-model="shape" ng-click="clickOnItem($event,shape)" ng-right-click="rightClick($event)" ng-class="{'active': shape.selected}" class="contenteditable logo-item ng-scope ng-pristine ng-valid noclick" ng-attr-transform="translate({{shape.x}} {{shape.y + (shape.bbox.y * -1 * shape.ratio)}})  scale({{shape.ratio}} {{shape.ratio}})" ng-if="shape.type == 'text'" id="shape-1" ng-mousedown="mouseDownItem($event,shape)" ng-mouseover="mouseUpItem($event,shape)" ng-mouseout="mouseOutItem($event,shape)" transform="translate(217.88751220703125 209.08952357777093)  scale(0.82471046448013 0.82471046448013)" contenteditable="false">
						<text class="real-text ng-binding" id="text-1" dominant-baseline="auto" alignment-baseline="auto" font-family="Qlassik Bold" font-size="34px" fill="#ffffff" ng-attr-dx="{{shape.dx}}" xml:space="preserve" dx="0 0 0 0 0 0 0 0 0 0 0 0 0 0 0 0 0 0">Meet your IT needs</text>
					</g>
					
					
	
					
					
				 </g><g ng-repeat="shape in logo.shapes | orderBy:'zindex'" class="ng-scope"> 
					
					
					
					
	
					
					<g type="container-logo" ng-click="clickOnItem($event,shape)" ng-class="{'active': shape.selected, 'dragging': dragging}" ng-right-click="rightClick($event)" class="logo-item ng-scope" ng-if="shape.type == 'logo' || shape.type == 'shape'" ng-attr-transform="translate({{(shape.symetrieX == 1 ? shape.x : shape.x + shape.width)}} {{(shape.symetrieY == 1 ? shape.y : shape.y + shape.height)}}) scale({{shape.width / shape.originalWidth * shape.symetrieX}} {{shape.height / shape.originalHeight * shape.symetrieY}}) rotate({{shape.rotate * shape.symetrieX * shape.symetrieY}} {{shape.originalWidth / 2}} {{shape.originalHeight / 2}})" id="shape-2" ng-mousedown="mouseDownItem($event,shape)" ng-mouseover="mouseUpItem($event,shape)" ng-mouseout="mouseOutItem($event,shape)" transform="translate(30.446968078609984 -0.000008752507824283384) scale(1.9588153628094007 1.9588153628094267) rotate(0 47.249496459961 24.2100048065185)">
	
						<g type="logo" class="svg-item ng-isolate-scope ng-pristine ng-valid" ng-model="shape" ng-shape="" ng-click="skav($event, shape)"><path d="M24.241,23.773c0,1.003-0.815,1.818-1.819,1.818h-3.708c-1.004,0-1.818-0.814-1.818-1.818l0,0
	c0-1.004,0.814-1.817,1.818-1.817h3.708C23.426,21.956,24.241,22.769,24.241,23.773L24.241,23.773z" ng-click="mouseDown($event,0)" id="PATH_2_0" fill="#ffffff" class="ng-scope"></path><path d="M16.165,31.044c0,1.004-0.814,1.817-1.818,1.817h-6.67c-1.003,0-1.817-0.813-1.817-1.817l0,0
	c0-1.004,0.814-1.819,1.817-1.819h6.67C15.351,29.225,16.165,30.04,16.165,31.044L16.165,31.044z" ng-click="mouseDown($event,1)" id="PATH_2_1" fill="#ffffff" class="ng-scope"></path><path d="M43.21,25.591c1.003,0,1.817,0.814,1.817,1.817c0,1.004-0.814,1.816-1.817,1.816H20.352
	c-1.004,0-1.818,0.815-1.818,1.819s0.814,1.817,1.818,1.817h12.473c1.003,0,1.819,0.813,1.819,1.818c0,0.976-0.772,1.766-1.738,1.81
	H11.532c-1.003,0-1.817,0.813-1.817,1.817s0.814,1.816,1.817,1.816h31.166c1.004,0,1.818,0.815,1.818,1.818
	c0,1.005-0.814,1.818-1.818,1.818H22.903c2.013,2.819,5.303,4.663,9.031,4.663h48.322c7.867,0,14.243-6.377,14.243-14.242
	c0-6.187-3.947-11.45-9.457-13.416c0.08-0.706,0.127-1.423,0.127-2.153C85.17,8.333,76.837,0,66.559,0
	c-7.896,0-14.638,4.917-17.343,11.854c-1.814-0.896-3.854-1.403-6.014-1.403c-5.457,0-10.149,3.226-12.307,7.868h6.126
	c1.003,0,1.816,0.814,1.816,1.818c0,1.004-0.813,1.819-1.816,1.819h-8.593c-1.004,0-1.818,0.813-1.818,1.817
	c0,1.003,0.814,1.818,1.818,1.818H43.21z M43.026,21.956c-1.004,0-1.818-0.814-1.818-1.818c0-1.004,0.814-1.819,1.818-1.819h6.67
	c1.005,0,1.817,0.814,1.817,1.819c0,1.003-0.813,1.818-1.817,1.818H43.026z" ng-click="mouseDown($event,2)" id="PATH_2_2" fill="#ffffff" class="ng-scope"></path><path d="M7.345,38.306c0,1.005-0.812,1.817-1.816,1.817H1.817C0.814,40.123,0,39.311,0,38.306l0,0
	c0-1.004,0.814-1.816,1.817-1.816h3.711C6.533,36.489,7.345,37.302,7.345,38.306L7.345,38.306z" ng-click="mouseDown($event,3)" id="PATH_2_3" fill="#ffffff" class="ng-scope"></path><path d="M54.229,41.941c0,1.004-0.813,1.818-1.816,1.818h-3.71c-1.003,0-1.817-0.814-1.817-1.818l0,0
	c0-1.003,0.814-1.818,1.817-1.818h3.71C53.417,40.123,54.229,40.938,54.229,41.941L54.229,41.941z" ng-click="mouseDown($event,4)" id="PATH_2_4" fill="#ffffff" class="ng-scope"></path><path d="M44.356,34.68c0,1.003-0.813,1.817-1.816,1.817h-3.71c-1.002,0-1.815-0.814-1.815-1.817l0,0
	c0-1.004,0.813-1.818,1.815-1.818h3.71C43.544,32.861,44.356,33.676,44.356,34.68L44.356,34.68z" ng-click="mouseDown($event,5)" id="PATH_2_5" fill="#ffffff" class="ng-scope"></path></g>
					</g>
				 </g><g ng-repeat="shape in logo.shapes | orderBy:'zindex'" class="ng-scope"> 
					
					
					
					
	
					
					<g type="container-shape" ng-click="clickOnItem($event,shape)" ng-class="{'active': shape.selected, 'dragging': dragging}" ng-right-click="rightClick($event)" class="logo-item ng-scope" ng-if="shape.type == 'logo' || shape.type == 'shape'" ng-attr-transform="translate({{(shape.symetrieX == 1 ? shape.x : shape.x + shape.width)}} {{(shape.symetrieY == 1 ? shape.y : shape.y + shape.height)}}) scale({{shape.width / shape.originalWidth * shape.symetrieX}} {{shape.height / shape.originalHeight * shape.symetrieY}}) rotate({{shape.rotate * shape.symetrieX * shape.symetrieY}} {{shape.originalWidth / 2}} {{shape.originalHeight / 2}})" id="shape-7" ng-mousedown="mouseDownItem($event,shape)" ng-mouseover="mouseUpItem($event,shape)" ng-mouseout="mouseOutItem($event,shape)" transform="translate(-33.120878643485185 133.1919980964807) scale(0.47621138539373936 0.47621138539373936) rotate(18 8.888211250305176 14.809157371520996)">
	
						<g type="shape" class="svg-item ng-isolate-scope ng-pristine ng-valid" ng-model="shape" ng-shape="" ng-click="skav($event, shape)"></g>
					</g>
				 </g>
				 </g>
             
        </svg>
        